module github.com/kubevirt/cluster-network-addons-operator

require (
	github.com/Masterminds/sprig v2.22.0+incompatible
	github.com/blang/semver v3.5.1+incompatible
	github.com/coreos/go-semver v0.3.0
	github.com/coreos/prometheus-operator v0.38.1-0.20200424145508-7e176fda06cc
	github.com/getlantern/deepcopy v0.0.0-20160317154340-7f45deb8130a
	github.com/ghodss/yaml v1.0.1-0.20190212211648-25d852aebe32
	github.com/github-release/github-release v0.10.0
	github.com/go-git/go-git/v5 v5.3.0
	github.com/gobwas/glob v0.2.3
	github.com/google/go-github/v32 v32.1.0
	github.com/kevinburke/rest v0.0.0-20210506044642-5611499aa33c // indirect
	github.com/onsi/gomega v1.18.1
	github.com/openshift/api v0.0.0
	github.com/openshift/cluster-network-operator v0.0.0-20200324123637-74e803688dd9
	github.com/openshift/custom-resource-status v1.1.2
	github.com/openshift/origin v4.1.0+incompatible
	github.com/operator-framework/operator-sdk v1.12.0
	github.com/pkg/errors v0.9.1
	github.com/prometheus/client_golang v1.12.1
	github.com/prometheus/common v0.32.1
	github.com/spf13/pflag v1.0.5
	github.com/thanhpk/randstr v1.0.4
	github.com/tomnomnom/linkheader v0.0.0-20180905144013-02ca5825eb80 // indirect
	github.com/voxelbrain/goptions v0.0.0-20180630082107-58cddc247ea2 // indirect
	golang.org/x/oauth2 v0.0.0-20211104180415-d3ed0bb246c8
	golang.org/x/tools v0.1.11
	gopkg.in/yaml.v2 v2.4.0
	k8s.io/api v0.24.2
	k8s.io/apiextensions-apiserver v0.24.2
	k8s.io/apimachinery v0.24.2
	k8s.io/client-go v12.0.0+incompatible
	k8s.io/helm v2.16.10+incompatible
	k8s.io/kubectl v0.24.2
	sigs.k8s.io/controller-runtime v0.11.1
	sigs.k8s.io/controller-tools v0.6.0
)

require (
	github.com/bshuster-repo/logrus-logstash-hook v1.0.2 // indirect
	github.com/onsi/ginkgo/v2 v2.1.3
	gopkg.in/yaml.v3 v3.0.1
	helm.sh/helm/v3 v3.9.4 // indirect
	kubevirt.io/client-go v0.58.0
	kubevirt.io/kubevirt v0.58.0
	rsc.io/letsencrypt v0.0.3 // indirect
	sigs.k8s.io/apiserver-network-proxy/konnectivity-client v0.0.27 // indirect
)

require (
	cloud.google.com/go v0.99.0 // indirect
	github.com/Azure/go-ansiterm v0.0.0-20210617225240-d185dfc1b5a1 // indirect
	github.com/Azure/go-autorest v14.2.0+incompatible // indirect
	github.com/Azure/go-autorest/autorest v0.11.24 // indirect
	github.com/Azure/go-autorest/autorest/adal v0.9.18 // indirect
	github.com/Azure/go-autorest/autorest/date v0.3.0 // indirect
	github.com/Azure/go-autorest/logger v0.2.1 // indirect
	github.com/Azure/go-autorest/tracing v0.6.0 // indirect
	github.com/BurntSushi/toml v1.0.0 // indirect
	github.com/MakeNowJust/heredoc v0.0.0-20170808103936-bb23615498cd // indirect
	github.com/Masterminds/goutils v1.1.1 // indirect
	github.com/Masterminds/semver v1.5.0 // indirect
	github.com/Masterminds/semver/v3 v3.1.1 // indirect
	github.com/Masterminds/sprig/v3 v3.2.2 // indirect
	github.com/Masterminds/squirrel v1.5.3 // indirect
	github.com/Microsoft/go-winio v0.5.0 // indirect
	github.com/Microsoft/hcsshim v0.8.24 // indirect
	github.com/PuerkitoBio/purell v1.1.1 // indirect
	github.com/PuerkitoBio/urlesc v0.0.0-20170810143723-de5bf2ad4578 // indirect
	github.com/antlr/antlr4/runtime/Go/antlr v0.0.0-20210826220005-b48c857c3a0e // indirect
	github.com/asaskevich/govalidator v0.0.0-20200907205600-7a23bdc65eef // indirect
	github.com/beorn7/perks v1.0.1 // indirect
	github.com/blang/semver/v4 v4.0.0 // indirect
	github.com/cespare/xxhash/v2 v2.1.2 // indirect
	github.com/chai2010/gettext-go v0.0.0-20160711120539-c6fed771bfd5 // indirect
	github.com/cloudflare/cfssl v1.5.0 // indirect
	github.com/containerd/cgroups v1.0.3 // indirect
	github.com/containerd/containerd v1.6.6 // indirect
	github.com/containerd/continuity v0.1.0 // indirect
	github.com/containerd/ttrpc v1.1.0 // indirect
	github.com/cyphar/filepath-securejoin v0.2.3 // indirect
	github.com/davecgh/go-spew v1.1.1 // indirect
	github.com/docker/cli v20.10.17+incompatible // indirect
	github.com/docker/distribution v2.8.1+incompatible // indirect
	github.com/docker/docker v20.10.17+incompatible // indirect
	github.com/docker/docker-credential-helpers v0.6.4 // indirect
	github.com/docker/go-connections v0.4.0 // indirect
	github.com/docker/go-metrics v0.0.1 // indirect
	github.com/docker/go-units v0.4.0 // indirect
	github.com/dustin/go-humanize v1.0.0 // indirect
	github.com/elazarl/goproxy v0.0.0-20190911111923-ecfe977594f1 // indirect
	github.com/emirpasic/gods v1.12.0 // indirect
	github.com/evanphx/json-patch v4.12.0+incompatible // indirect
	github.com/exponent-io/jsonpath v0.0.0-20151013193312-d6023ce2651d // indirect
	github.com/fatih/color v1.13.0 // indirect
	github.com/fatih/structtag v1.1.0 // indirect
	github.com/felixge/httpsnoop v1.0.1 // indirect
	github.com/fsnotify/fsnotify v1.5.1 // indirect
	github.com/go-errors/errors v1.0.1 // indirect
	github.com/go-git/gcfg v1.5.0 // indirect
	github.com/go-git/go-billy/v5 v5.1.0 // indirect
	github.com/go-gorp/gorp/v3 v3.0.2 // indirect
	github.com/go-kit/kit v0.10.0 // indirect
	github.com/go-logfmt/logfmt v0.5.0 // indirect
	github.com/go-logr/logr v1.2.3 // indirect
	github.com/go-openapi/jsonpointer v0.19.5 // indirect
	github.com/go-openapi/jsonreference v0.19.6 // indirect
	github.com/go-openapi/swag v0.21.1 // indirect
	github.com/gobuffalo/envy v1.7.1 // indirect
	github.com/gobuffalo/flect v0.2.2 // indirect
	github.com/gogo/protobuf v1.3.2 // indirect
	github.com/golang-jwt/jwt/v4 v4.2.0 // indirect
	github.com/golang/glog v1.0.0 // indirect
	github.com/golang/groupcache v0.0.0-20210331224755-41bb18bfe9da // indirect
	github.com/golang/mock v1.6.0 // indirect
	github.com/golang/protobuf v1.5.2 // indirect
	github.com/google/btree v1.0.1 // indirect
	github.com/google/cel-go v0.9.0 // indirect
	github.com/google/certificate-transparency-go v1.0.21 // indirect
	github.com/google/go-cmp v0.5.6 // indirect
	github.com/google/go-querystring v1.0.0 // indirect
	github.com/google/goexpect v0.0.0-20190425035906-112704a48083 // indirect
	github.com/google/gofuzz v1.2.0 // indirect
	github.com/google/goterm v0.0.0-20190311235235-ce302be1d114 // indirect
	github.com/google/shlex v0.0.0-20191202100458-e7afc7fbc510 // indirect
	github.com/google/uuid v1.3.0 // indirect
	github.com/googleapis/gnostic v0.5.5 // indirect
	github.com/gorilla/mux v1.8.0 // indirect
	github.com/gorilla/websocket v1.5.0 // indirect
	github.com/gosuri/uitable v0.0.4 // indirect
	github.com/gregjones/httpcache v0.0.0-20190203031600-7a902570cb17 // indirect
	github.com/grpc-ecosystem/grpc-gateway v1.16.0 // indirect
	github.com/h2non/filetype v1.1.1 // indirect
	github.com/h2non/go-is-svg v0.0.0-20160927212452-35e8c4b0612c // indirect
	github.com/hashicorp/errwrap v1.0.0 // indirect
	github.com/hashicorp/go-multierror v1.1.1 // indirect
	github.com/hashicorp/hcl v1.0.0 // indirect
	github.com/huandu/xstrings v1.3.2 // indirect
	github.com/iancoleman/strcase v0.0.0-20191112232945-16388991a334 // indirect
	github.com/imdario/mergo v0.3.12 // indirect
	github.com/inconshreveable/mousetrap v1.0.0 // indirect
	github.com/jbenet/go-context v0.0.0-20150711004518-d14ea06fba99 // indirect
	github.com/jmoiron/sqlx v1.3.5 // indirect
	github.com/joho/godotenv v1.3.0 // indirect
	github.com/josharian/intern v1.0.0 // indirect
	github.com/jpillora/backoff v1.0.0 // indirect
	github.com/json-iterator/go v1.1.12 // indirect
	github.com/k8snetworkplumbingwg/network-attachment-definition-client v1.3.0 // indirect
	github.com/kevinburke/ssh_config v0.0.0-20201106050909-4977a11b4351 // indirect
	github.com/klauspost/compress v1.13.6 // indirect
	github.com/kr/text v0.2.0 // indirect
	github.com/kubernetes-csi/external-snapshotter/client/v4 v4.2.0 // indirect
	github.com/lann/builder v0.0.0-20180802200727-47ae307949d0 // indirect
	github.com/lann/ps v0.0.0-20150810152359-62de8c46ede0 // indirect
	github.com/lib/pq v1.10.6 // indirect
	github.com/liggitt/tabwriter v0.0.0-20181228230101-89fcab3d43de // indirect
	github.com/magiconair/properties v1.8.5 // indirect
	github.com/mailru/easyjson v0.7.7 // indirect
	github.com/markbates/inflect v1.0.4 // indirect
	github.com/mattn/go-colorable v0.1.12 // indirect
	github.com/mattn/go-isatty v0.0.14 // indirect
	github.com/mattn/go-runewidth v0.0.12 // indirect
	github.com/matttproud/golang_protobuf_extensions v1.0.2-0.20181231171920-c182affec369 // indirect
	github.com/mitchellh/copystructure v1.2.0 // indirect
	github.com/mitchellh/go-homedir v1.1.0 // indirect
	github.com/mitchellh/go-wordwrap v1.0.0 // indirect
	github.com/mitchellh/mapstructure v1.4.1 // indirect
	github.com/mitchellh/reflectwalk v1.0.2 // indirect
	github.com/moby/locker v1.0.1 // indirect
	github.com/moby/spdystream v0.2.0 // indirect
	github.com/moby/sys/mountinfo v0.5.0 // indirect
	github.com/moby/term v0.0.0-20210619224110-3f7ff695adc6 // indirect
	github.com/modern-go/concurrent v0.0.0-20180306012644-bacd9c7ef1dd // indirect
	github.com/modern-go/reflect2 v1.0.2 // indirect
	github.com/monochromegane/go-gitignore v0.0.0-20200626010858-205db1a8cc00 // indirect
	github.com/morikuni/aec v1.0.0 // indirect
	github.com/mwitkow/go-conntrack v0.0.0-20190716064945-2f068394615f // indirect
	github.com/opencontainers/go-digest v1.0.0 // indirect
	github.com/opencontainers/image-spec v1.0.3-0.20211202183452-c5a74bcca799 // indirect
	github.com/openshift/client-go v0.0.0 // indirect
	github.com/operator-framework/api v0.10.5 // indirect
	github.com/operator-framework/java-operator-plugins v0.0.0-20210708174638-463fb91f3d5e // indirect
	github.com/operator-framework/operator-registry v1.17.4 // indirect
	github.com/otiai10/copy v1.2.0 // indirect
	github.com/pborman/uuid v1.2.0 // indirect
	github.com/pelletier/go-toml v1.9.3 // indirect
	github.com/peterbourgon/diskv v2.0.1+incompatible // indirect
	github.com/pmezard/go-difflib v1.0.0 // indirect
	github.com/prometheus/client_model v0.2.0 // indirect
	github.com/prometheus/procfs v0.7.3 // indirect
	github.com/rivo/uniseg v0.2.0 // indirect
	github.com/rogpeppe/go-internal v1.8.0 // indirect
	github.com/rubenv/sql-migrate v1.1.1 // indirect
	github.com/russross/blackfriday v1.5.2 // indirect
	github.com/sergi/go-diff v1.1.0 // indirect
	github.com/shopspring/decimal v1.2.0 // indirect
	github.com/sirupsen/logrus v1.8.1 // indirect
	github.com/spf13/afero v1.6.0 // indirect
	github.com/spf13/cast v1.4.1 // indirect
	github.com/spf13/cobra v1.5.0 // indirect
	github.com/spf13/jwalterweatherman v1.1.0 // indirect
	github.com/spf13/viper v1.8.1 // indirect
	github.com/stoewer/go-strcase v1.2.0 // indirect
	github.com/stretchr/testify v1.7.2 // indirect
	github.com/subosito/gotenv v1.2.0 // indirect
	github.com/thoas/go-funk v0.8.0 // indirect
	github.com/weppos/publicsuffix-go v0.13.0 // indirect
	github.com/xanzy/ssh-agent v0.3.0 // indirect
	github.com/xeipuuv/gojsonpointer v0.0.0-20190809123943-df4f5c81cb3b // indirect
	github.com/xeipuuv/gojsonreference v0.0.0-20180127040603-bd5ef7bd5415 // indirect
	github.com/xeipuuv/gojsonschema v1.2.0 // indirect
	github.com/xlab/treeprint v0.0.0-20181112141820-a009c3971eca // indirect
	github.com/zmap/zcrypto v0.0.0-20200911161511-43ff0ea04f21 // indirect
	github.com/zmap/zlint/v2 v2.2.1 // indirect
	go.etcd.io/bbolt v1.3.6 // indirect
	go.opencensus.io v0.23.0 // indirect
	go.opentelemetry.io/contrib v0.20.0 // indirect
	go.opentelemetry.io/contrib/instrumentation/net/http/otelhttp v0.20.0 // indirect
	go.opentelemetry.io/otel v0.20.0 // indirect
	go.opentelemetry.io/otel/exporters/otlp v0.20.0 // indirect
	go.opentelemetry.io/otel/metric v0.20.0 // indirect
	go.opentelemetry.io/otel/sdk v0.20.0 // indirect
	go.opentelemetry.io/otel/sdk/export/metric v0.20.0 // indirect
	go.opentelemetry.io/otel/sdk/metric v0.20.0 // indirect
	go.opentelemetry.io/otel/trace v0.20.0 // indirect
	go.opentelemetry.io/proto/otlp v0.7.0 // indirect
	go.starlark.net v0.0.0-20200306205701-8dd3e2ee1dd5 // indirect
	golang.org/x/crypto v0.0.0-20220525230936-793ad666bf5e // indirect
	golang.org/x/mod v0.6.0-dev.0.20220419223038-86c51ed26bb4 // indirect
	golang.org/x/net v0.0.0-20220225172249-27dd8689420f // indirect
	golang.org/x/sync v0.0.0-20220601150217-0de741cfad7f // indirect
	golang.org/x/sys v0.0.0-20220503163025-988cb79eb6c6 // indirect
	golang.org/x/term v0.0.0-20210927222741-03fcf44c2211 // indirect
	golang.org/x/text v0.3.7 // indirect
	golang.org/x/time v0.0.0-20220210224613-90d013bbcef8 // indirect
	gomodules.xyz/jsonpatch/v2 v2.2.0 // indirect
	google.golang.org/appengine v1.6.7 // indirect
	google.golang.org/genproto v0.0.0-20220107163113-42d7afdf6368 // indirect
	google.golang.org/grpc v1.43.0 // indirect
	google.golang.org/protobuf v1.27.1 // indirect
	gopkg.in/inf.v0 v0.9.1 // indirect
	gopkg.in/ini.v1 v1.62.0 // indirect
	gopkg.in/warnings.v0 v0.1.2 // indirect
	k8s.io/apiserver v0.24.2 // indirect
	k8s.io/cli-runtime v0.24.2 // indirect
	k8s.io/component-base v0.24.2 // indirect
	k8s.io/klog/v2 v2.60.1 // indirect
	k8s.io/kube-aggregator v0.23.5 // indirect
	k8s.io/kube-openapi v0.0.0-20220627174259-011e075b9cb8 // indirect
	k8s.io/kubernetes v1.14.0 // indirect
	k8s.io/utils v0.0.0-20220210201930-3a6ce19ff2f9 // indirect
	kubevirt.io/api v0.0.0-20221013011232-17665f214e18 // indirect
	kubevirt.io/containerized-data-importer-api v1.50.0 // indirect
	kubevirt.io/controller-lifecycle-operator-sdk/api v0.0.0-20220329064328-f3cc58c6ed90 // indirect
	oras.land/oras-go v1.2.0 // indirect
	sigs.k8s.io/json v0.0.0-20211208200746-9f7c6b3444d2 // indirect
	sigs.k8s.io/kubebuilder/v3 v3.0.0-alpha.0.0.20210803185103-51e4a9aa5055 // indirect
	sigs.k8s.io/kustomize/api v0.11.4 // indirect
	sigs.k8s.io/kustomize/kyaml v0.13.6 // indirect
	sigs.k8s.io/structured-merge-diff/v4 v4.2.1 // indirect
	sigs.k8s.io/yaml v1.3.0 // indirect
)

// Pinned to kubernetes-1.23.1
replace (
	k8s.io/api => k8s.io/api v0.23.1
	k8s.io/apiextensions-apiserver => k8s.io/apiextensions-apiserver v0.23.1
	k8s.io/apimachinery => k8s.io/apimachinery v0.23.1
	k8s.io/apiserver => k8s.io/apiserver v0.23.1
	k8s.io/cli-runtime => k8s.io/cli-runtime v0.23.1
	k8s.io/cloud-provider => k8s.io/cloud-provider v0.23.1
	k8s.io/cluster-bootstrap => k8s.io/cluster-bootstrap v0.23.1
	k8s.io/code-generator => k8s.io/code-generator v0.23.1
	k8s.io/component-base => k8s.io/component-base v0.23.1
	k8s.io/component-helpers => k8s.io/component-helpers v0.23.1
	k8s.io/controller-manager => k8s.io/controller-manager v0.23.1
	k8s.io/cri-api => k8s.io/cri-api v0.23.1
	k8s.io/csi-translation-lib => k8s.io/csi-translation-lib v0.23.1
	k8s.io/kube-aggregator => k8s.io/kube-aggregator v0.23.1
	k8s.io/kube-controller-manager => k8s.io/kube-controller-manager v0.23.1
	k8s.io/kube-proxy => k8s.io/kube-proxy v0.23.1
	k8s.io/kube-scheduler => k8s.io/kube-scheduler v0.23.1
	k8s.io/kubectl => k8s.io/kubectl v0.23.1
	k8s.io/kubelet => k8s.io/kubelet v0.23.1
	k8s.io/kubernetes => k8s.io/kubernetes v1.23.1
	k8s.io/legacy-cloud-providers => k8s.io/legacy-cloud-providers v0.23.1
	k8s.io/metrics => k8s.io/metrics v0.23.1
	k8s.io/mount-utils => k8s.io/mount-utils v0.23.1
	k8s.io/pod-security-admission => k8s.io/pod-security-admission v0.23.1
	k8s.io/sample-apiserver => k8s.io/sample-apiserver v0.23.1
)

replace (
	github.com/containerd/containerd => github.com/containerd/containerd v1.5.13
	github.com/docker/distribution => github.com/docker/distribution v2.8.1+incompatible
	github.com/gogo/protobuf => github.com/gogo/protobuf v1.3.2
	github.com/mattn/go-sqlite3 => github.com/mattn/go-sqlite3 v1.10.0
	github.com/onsi/ginkgo/v2 => github.com/onsi/ginkgo/v2 v2.1.3
	github.com/opencontainers/image-spec => github.com/opencontainers/image-spec v1.0.2
	github.com/opencontainers/runc => github.com/opencontainers/runc v1.0.3
	github.com/openshift/custom-resource-status => github.com/openshift/custom-resource-status v1.1.2
	github.com/prometheus/client_golang => github.com/prometheus/client_golang v1.11.1
	golang.org/x/text => golang.org/x/text v0.3.3
	k8s.io/client-go => k8s.io/client-go v0.23.1
	k8s.io/kube-openapi => k8s.io/kube-openapi v0.0.0-20210113233702-8566a335510f
	sigs.k8s.io/kustomize/api => sigs.k8s.io/kustomize/api v0.11.1
	sigs.k8s.io/kustomize/kyaml => sigs.k8s.io/kustomize/kyaml v0.13.3
)

replace (
	kubevirt.io/api => kubevirt.io/api v0.58.0
	kubevirt.io/client-go => kubevirt.io/client-go v0.58.0
	kubevirt.io/containerized-data-importer-api => kubevirt.io/containerized-data-importer-api v1.50.0
)

// Aligning with https://github.com/kubevirt/containerized-data-importer-api/blob/release-v1.41.1
replace (
	github.com/openshift/api => github.com/openshift/api v0.0.0-20220315184754-d7c10d0b647e
	github.com/openshift/client-go => github.com/openshift/client-go v0.0.0-20200521150516-05eb9880269c
	github.com/openshift/library-go => github.com/mhenriks/library-go v0.0.0-20200804184258-4fc3a5379c7a
	sigs.k8s.io/structured-merge-diff => sigs.k8s.io/structured-merge-diff v1.0.2
)

replace github.com/Microsoft/go-winio => github.com/Microsoft/go-winio v0.4.17

replace bitbucket.org/ww/goautoneg => github.com/munnerz/goautoneg v0.0.0-20120707110453-a547fc61f48d

go 1.17
